{
    "searchTerms1": "",
    "searchTerms2": "",
    "searchTerms3": "",
    "searchTerms4": "",
    "image1": "",
    "image2": "",
    "image3": "",
    "image4": "",
    "image5": "",
    "image6": "",
    "note": ""
  }